EESchema Schematic File Version 4
EELAYER 30 0
EELAYER END
$Descr A4 11693 8268
encoding utf-8
Sheet 1 1
Title "KAP rig remote control"
Date "2019-11-15"
Rev "1.0.0"
Comp ""
Comment1 ""
Comment2 ""
Comment3 ""
Comment4 ""
$EndDescr
$Comp
L power:+9V #PWR01
U 1 1 5DCE2007
P 7500 2350
F 0 "#PWR01" H 7500 2200 50  0001 C CNN
F 1 "+9V" V 7515 2478 50  0000 L CNN
F 2 "" H 7500 2350 50  0001 C CNN
F 3 "" H 7500 2350 50  0001 C CNN
	1    7500 2350
	0    1    1    0   
$EndComp
Wire Wire Line
	5800 2350 5800 2900
$Comp
L power:GND #PWR02
U 1 1 5DCE1C64
P 7500 5350
F 0 "#PWR02" H 7500 5100 50  0001 C CNN
F 1 "GND" H 7505 5177 50  0000 C CNN
F 2 "" H 7500 5350 50  0001 C CNN
F 3 "" H 7500 5350 50  0001 C CNN
	1    7500 5350
	0    -1   -1   0   
$EndComp
$Comp
L Device:R R1
U 1 1 5DCEB291
P 6700 3100
F 0 "R1" H 6630 3054 50  0000 R CNN
F 1 "22 kΩ" H 6630 3145 50  0000 R CNN
F 2 "Resistor_THT:R_Axial_DIN0207_L6.3mm_D2.5mm_P7.62mm_Horizontal" V 6630 3100 50  0001 C CNN
F 3 "~" H 6700 3100 50  0001 C CNN
	1    6700 3100
	-1   0    0    1   
$EndComp
Wire Wire Line
	5800 2350 6700 2350
Wire Wire Line
	6700 5350 6000 5350
Wire Wire Line
	6000 5350 6000 4900
Wire Wire Line
	6400 3900 6700 3900
Connection ~ 6700 3900
Wire Wire Line
	6700 3900 6700 4550
$Comp
L KAP:Joystick A2
U 1 1 5DCFB594
P 7300 3850
F 0 "A2" V 7850 4950 50  0000 L CNN
F 1 "Joystick" V 6750 4750 50  0000 L CNN
F 2 "KAP:Joystick" H 7200 3850 50  0001 C CNN
F 3 "" H 7200 3850 50  0001 C CNN
	1    7300 3850
	0    1    -1   0   
$EndComp
Wire Wire Line
	6700 2350 7000 2350
Connection ~ 6700 2350
Wire Wire Line
	6700 5350 7050 5350
Connection ~ 6700 5350
Wire Wire Line
	6700 3250 6700 3900
Wire Wire Line
	6700 2350 6700 2950
Wire Wire Line
	6700 4850 6700 5350
Wire Wire Line
	7400 2350 7500 2350
$Comp
L Device:R R2
U 1 1 5DCECB2A
P 6700 4700
F 0 "R2" H 6770 4746 50  0000 L CNN
F 1 "15 kΩ" H 6770 4655 50  0000 L CNN
F 2 "Resistor_THT:R_Axial_DIN0207_L6.3mm_D2.5mm_P7.62mm_Horizontal" V 6630 4700 50  0001 C CNN
F 3 "~" H 6700 4700 50  0001 C CNN
	1    6700 4700
	1    0    0    -1  
$EndComp
$Comp
L KAP:RF_Transmitter_433_MHz RF1
U 1 1 5DCDF4F2
P 4450 3700
F 0 "RF1" V 4200 3950 60  0000 C CNN
F 1 "FS1000A" V 4700 4100 60  0000 C CNN
F 2 "KAP:RF_Transmitter_433_MHz" H 4450 3700 60  0001 C CNN
F 3 "" H 4450 3700 60  0000 C CNN
	1    4450 3700
	0    -1   1    0   
$EndComp
Wire Wire Line
	6100 2900 6100 2550
Wire Wire Line
	7200 4050 7050 4050
Wire Wire Line
	7050 4050 7050 5350
Connection ~ 7050 5350
Wire Wire Line
	7050 5350 7500 5350
Wire Wire Line
	7200 3950 7050 3950
Wire Wire Line
	7050 3950 7050 2550
Wire Wire Line
	7050 2550 6100 2550
Wire Wire Line
	7200 3850 6950 3850
Wire Wire Line
	6950 3850 6950 4000
Wire Wire Line
	6950 4000 6400 4000
Wire Wire Line
	7200 3750 6850 3750
Wire Wire Line
	6850 3750 6850 4100
Wire Wire Line
	6850 4100 6400 4100
Wire Wire Line
	5400 3500 5250 3500
Wire Wire Line
	5250 3500 5250 2700
Wire Wire Line
	5250 2700 7150 2700
Wire Wire Line
	7150 2700 7150 3650
Wire Wire Line
	7150 3650 7200 3650
Wire Wire Line
	5400 3600 4450 3600
Wire Wire Line
	4450 3800 4450 4200
Connection ~ 6000 5350
Wire Wire Line
	4950 3700 4950 2550
Wire Wire Line
	4950 2550 6100 2550
Connection ~ 6100 2550
$Comp
L dk_Pushbutton-Switches:GPTS203211B S1
U 1 1 5DD215AA
P 7200 2350
F 0 "S1" H 7200 2533 50  0000 C CNN
F 1 "GPTS203211B" H 7200 2534 50  0001 C CNN
F 2 "digikey-footprints:PushButton_12x12mm_THT_GPTS203211B" H 7400 2550 50  0001 L CNN
F 3 "http://switches-connectors-custom.cwind.com/Asset/GPTS203211BR2.pdf" H 7400 2650 60  0001 L CNN
F 4 "CW181-ND" H 7400 2750 60  0001 L CNN "Digi-Key_PN"
F 5 "GPTS203211B" H 7400 2850 60  0001 L CNN "MPN"
F 6 "" H 7400 2950 60  0001 L CNN "Category"
F 7 "Pushbutton Switches" H 7400 3050 60  0001 L CNN "Family"
F 8 "" H 7400 3150 60  0001 L CNN "DK_Datasheet_Link"
F 9 "" H 7400 3250 60  0001 L CNN "DK_Detail_Page"
F 10 "SWITCH PUSHBUTTON SPST 1A 30V" H 7400 3350 60  0001 L CNN "Description"
F 11 "CW Industries" H 7400 3450 60  0001 L CNN "Manufacturer"
F 12 "Active" H 7400 3550 60  0001 L CNN "Status"
	1    7200 2350
	1    0    0    -1  
$EndComp
$Comp
L Device:CP C1
U 1 1 5DD93CDB
P 4750 3950
F 0 "C1" H 4868 3996 50  0000 L CNN
F 1 "100 μF" H 4868 3905 50  0000 L CNN
F 2 "" H 4788 3800 50  0001 C CNN
F 3 "~" H 4750 3950 50  0001 C CNN
	1    4750 3950
	1    0    0    -1  
$EndComp
Wire Wire Line
	4450 5350 6000 5350
Wire Wire Line
	4450 3700 4750 3700
Wire Wire Line
	4750 3800 4750 3700
Connection ~ 4750 3700
Wire Wire Line
	4750 3700 4950 3700
Wire Wire Line
	4750 4100 4750 4200
Wire Wire Line
	4750 4200 4450 4200
Connection ~ 4450 4200
Wire Wire Line
	4450 4200 4450 5350
$Comp
L MCU_Module:Arduino_Nano_v3.x A?
U 1 1 5EB8A169
P 5900 3900
F 0 "A?" H 5900 2811 50  0000 C CNN
F 1 "Arduino_Nano_v3.x" H 5900 2720 50  0000 C CNN
F 2 "Module:Arduino_Nano" H 5900 3900 50  0001 C CIN
F 3 "http://www.mouser.com/pdfdocs/Gravitech_Arduino_Nano3_0.pdf" H 5900 3900 50  0001 C CNN
	1    5900 3900
	1    0    0    -1  
$EndComp
$EndSCHEMATC
